Project 1: Exploratory Data Analysis
…
The two datasets were joined across the variable "state abbreviation," which was renamed in the Senate Seat Forecast dataset to match that in the State Information dataset. A left join was used to merge the dataset in order to preserve the numeric data from Senate Seat Forecast and accordingly add matches from the Senate Information dataset. The case that was dropped upon joining was Washington, D.C., which is expected because D.C. does not have representation in the Senate.

Data Wrangling (includes Tidying Functions)

# Exploring with dplyr functions
merged_data_edit <- merged_data %>% filter(complete.cases(merged_data))

merged_data_edit %>% select(forecastdate, candidate, voteshare, 
    state) %>% group_by(candidate, state) %>% summarize(mean_voteshare_candidate = mean(voteshare, 
    na.rm = T)) %>% arrange(desc(mean_voteshare_candidate))

## # A tibble: 83 x 3
## # Groups:   candidate [83]
##    candidate             state         mean_voteshare_candidate
##    <fct>                 <chr>                            <dbl>
##  1 Mazie K. Hirono       Hawaii                            75.7
##  2 Bernard Sanders       Vermont                           68.0
##  3 John Barrasso         Wyoming                           67.5
##  4 Benjamin L. Cardin    Maryland                          66.5
##  5 Kirsten E. Gillibrand New York                          66.3
##  6 Sheldon Whitehouse    Rhode Island                      64.5
##  7 Elizabeth Warren      Massachusetts                     63.2
##  8 Christopher Murphy    Connecticut                       61.5
##  9 Angus S. King Jr.     Maine                             60.9
## 10 Maria Cantwell        Washington                        60.7
## # … with 73 more rows

merged_data_edit %>% group_by(candidate, party) %>% summarize(mean_win_candidate = mean(win_probability, 
    na.rm = T))

## # A tibble: 83 x 3
## # Groups:   candidate [83]
##    candidate          party mean_win_candidate
##    <fct>              <fct>              <dbl>
##  1 Amy Klobuchar      D              0.996    
##  2 Angela Green       G              0.0000160
##  3 Angus S. King Jr.  I              0.993    
##  4 Benjamin L. Cardin D              0.999    
##  5 Bernard Sanders    I              1.00     
##  6 Beto O'Rourke      D              0.241    
##  7 Bill Nelson        D              0.597    
##  8 Bob Flanders       R              0.00438  
##  9 Bob Hugin          R              0.0992   
## 10 Chele Farley       R              0.000389 
## # … with 73 more rows
…
## Rows: 2
## Columns: 3
## $ incumbent <lgl> TRUE, FALSE
## $ mean_win  <dbl> 0.8968181, 0.1543770
## $ sd_win    <dbl> 0.1676154, 0.2614893

win_prob_partystate <- merged_data_edit %>% group_by(party, state_abbrev) %>% 
    summarize(mean_win = mean(win_probability, na.rm = T), sd_win = sd(win_probability))
win_prob_partystate[order(win_prob_partystate[, "state_abbrev"]), 
    ]

## # A tibble: 76 x 4
## # Groups:   party [5]
##    party state_abbrev  mean_win    sd_win
##    <fct> <chr>            <dbl>     <dbl>
##  1 D     AZ           0.679     0.0586   
##  2 G     AZ           0.0000160 0.0000367
##  3 R     AZ           0.321     0.0586   
##  4 D     CA           0.5       0.475    
##  5 D     CT           0.995     0.00763  
##  6 R     CT           0.00492   0.00763  
##  7 D     DE           0.983     0.0254   
##  8 R     DE           0.0173    0.0254   
##  9 D     FL           0.597     0.0618   
## 10 R     FL           0.403     0.0618   
## # … with 66 more rows
…
